{
	"client": "./client",
	"svr": "./server",
	"miniprogramRoot": "./client",
	"qcloudRoot": "./server",
	"setting": {
		"urlCheck": false,
		"es6": true,
		"postcss": true,
		"minified": true,
		"newFeature": true
	},
	"appid": "wxb8b4f55261fa1c6a",
	"projectname": "test",
	"libVersion": "2.1.0",
	"scripts": {
		"beforeCompile": "",
		"beforePreview": "",
		"beforeUpload": ""
	},
	"condition": {}
}